^C:\USERS\KATE\DESKTOP\KATE\UNIVERSITY\FINAL YEAR\FINAL YEAR PROJECT\FINAL-YEAR-PROJECT\TURORIALS_AND_EXAMPLES\HELLO_ICUB\BUILD\HELLO.DIR\DEBUG\MAIN.OBJ
C:\USERS\KATE\DESKTOP\KATE\UNIVERSITY\FINAL YEAR\FINAL YEAR PROJECT\FINAL-YEAR-PROJECT\TURORIALS_AND_EXAMPLES\HELLO_ICUB\BUILD\DEBUG\HELLO.ILK
C:\USERS\KATE\DESKTOP\KATE\UNIVERSITY\FINAL YEAR\FINAL YEAR PROJECT\FINAL-YEAR-PROJECT\TURORIALS_AND_EXAMPLES\HELLO_ICUB\BUILD\DEBUG\HELLO.EXE
C:\USERS\KATE\DESKTOP\KATE\UNIVERSITY\FINAL YEAR\FINAL YEAR PROJECT\FINAL-YEAR-PROJECT\TURORIALS_AND_EXAMPLES\HELLO_ICUB\BUILD\DEBUG\HELLO.PDB
