^C:\USERS\KATE\DESKTOP\KATE\UNIVERSITY\FINAL YEAR\FINAL YEAR PROJECT\COPYFILES\DEMOS\TUTORIAL_CARTESIAN-INTERFACE-ALEXANTN\SRC\MAIN.CPP
C:\WINDOWS\GLOBALIZATION\SORTING\SORTDEFAULT.NLS
C:\PROGRAM FILES (X86)\MICROSOFT VISUAL STUDIO 12.0\VC\BIN\X86_AMD64\1033\CLUI.DLL
C:\WINDOWS\SYSTEM32\TZRES.DLL
C:\PROGRAM FILES (X86)\MICROSOFT VISUAL STUDIO 12.0\VC\INCLUDE\CMATH
C:\PROGRAM FILES (X86)\MICROSOFT VISUAL STUDIO 12.0\VC\INCLUDE\YVALS.H
C:\PROGRAM FILES (X86)\MICROSOFT VISUAL STUDIO 12.0\VC\INCLUDE\XKEYCHECK.H
C:\PROGRAM FILES (X86)\MICROSOFT VISUAL STUDIO 12.0\VC\INCLUDE\CRTDEFS.H
C:\PROGRAM FILES (X86)\MICROSOFT VISUAL STUDIO 12.0\VC\INCLUDE\SAL.H
C:\PROGRAM FILES (X86)\MICROSOFT VISUAL STUDIO 12.0\VC\INCLUDE\CONCURRENCYSAL.H
C:\PROGRAM FILES (X86)\MICROSOFT VISUAL STUDIO 12.0\VC\INCLUDE\VADEFS.H
C:\PROGRAM FILES (X86)\MICROSOFT VISUAL STUDIO 12.0\VC\INCLUDE\USE_ANSI.H
C:\PROGRAM FILES (X86)\MICROSOFT VISUAL STUDIO 12.0\VC\INCLUDE\MATH.H
C:\PROGRAM FILES (X86)\MICROSOFT VISUAL STUDIO 12.0\VC\INCLUDE\XTGMATH.H
C:\PROGRAM FILES (X86)\MICROSOFT VISUAL STUDIO 12.0\VC\INCLUDE\XTR1COMMON
C:\PROGRAM FILES\ROBOTOLOGY\YARP-2.3.66\INCLUDE\YARP\OS\NETWORK.H
C:\PROGRAM FILES\ROBOTOLOGY\YARP-2.3.66\INCLUDE\YARP\OS\CONTACTSTYLE.H
C:\PROGRAM FILES\ROBOTOLOGY\YARP-2.3.66\INCLUDE\YARP\OS\CONSTSTRING.H
C:\PROGRAM FILES\ROBOTOLOGY\YARP-2.3.66\INCLUDE\YARP\OS\API.H
C:\PROGRAM FILES\ROBOTOLOGY\YARP-2.3.66\INCLUDE\YARP\CONF\API.H
C:\PROGRAM FILES\ROBOTOLOGY\YARP-2.3.66\INCLUDE\YARP\CONF\SYSTEM.H
C:\PROGRAM FILES\ROBOTOLOGY\YARP-2.3.66\INCLUDE\YARP\CONF\NUMERIC.H
C:\PROGRAM FILES (X86)\MICROSOFT VISUAL STUDIO 12.0\VC\INCLUDE\SYS\TYPES.H
C:\PROGRAM FILES (X86)\MICROSOFT VISUAL STUDIO 12.0\VC\INCLUDE\STDDEF.H
C:\PROGRAM FILES (X86)\MICROSOFT VISUAL STUDIO 12.0\VC\INCLUDE\STRING
C:\PROGRAM FILES (X86)\MICROSOFT VISUAL STUDIO 12.0\VC\INCLUDE\ITERATOR
C:\PROGRAM FILES (X86)\MICROSOFT VISUAL STUDIO 12.0\VC\INCLUDE\ISTREAM
C:\PROGRAM FILES (X86)\MICROSOFT VISUAL STUDIO 12.0\VC\INCLUDE\OSTREAM
C:\PROGRAM FILES (X86)\MICROSOFT VISUAL STUDIO 12.0\VC\INCLUDE\IOS
C:\PROGRAM FILES (X86)\MICROSOFT VISUAL STUDIO 12.0\VC\INCLUDE\XLOCNUM
C:\PROGRAM FILES (X86)\MICROSOFT VISUAL STUDIO 12.0\VC\INCLUDE\CLIMITS
C:\PROGRAM FILES (X86)\MICROSOFT VISUAL STUDIO 12.0\VC\INCLUDE\LIMITS.H
C:\PROGRAM FILES (X86)\MICROSOFT VISUAL STUDIO 12.0\VC\INCLUDE\CSTDIO
C:\PROGRAM FILES (X86)\MICROSOFT VISUAL STUDIO 12.0\VC\INCLUDE\STDIO.H
C:\PROGRAM FILES (X86)\MICROSOFT VISUAL STUDIO 12.0\VC\INCLUDE\SWPRINTF.INL
C:\PROGRAM FILES (X86)\MICROSOFT VISUAL STUDIO 12.0\VC\INCLUDE\CSTDLIB
C:\PROGRAM FILES (X86)\MICROSOFT VISUAL STUDIO 12.0\VC\INCLUDE\STDLIB.H
C:\PROGRAM FILES (X86)\MICROSOFT VISUAL STUDIO 12.0\VC\INCLUDE\STREAMBUF
C:\PROGRAM FILES (X86)\MICROSOFT VISUAL STUDIO 12.0\VC\INCLUDE\XIOSBASE
C:\PROGRAM FILES (X86)\MICROSOFT VISUAL STUDIO 12.0\VC\INCLUDE\XLOCALE
C:\PROGRAM FILES (X86)\MICROSOFT VISUAL STUDIO 12.0\VC\INCLUDE\CSTRING
C:\PROGRAM FILES (X86)\MICROSOFT VISUAL STUDIO 12.0\VC\INCLUDE\STRING.H
C:\PROGRAM FILES (X86)\MICROSOFT VISUAL STUDIO 12.0\VC\INCLUDE\STDEXCEPT
C:\PROGRAM FILES (X86)\MICROSOFT VISUAL STUDIO 12.0\VC\INCLUDE\EXCEPTION
C:\PROGRAM FILES (X86)\MICROSOFT VISUAL STUDIO 12.0\VC\INCLUDE\XSTDDEF
C:\PROGRAM FILES (X86)\MICROSOFT VISUAL STUDIO 12.0\VC\INCLUDE\CSTDDEF
C:\PROGRAM FILES (X86)\MICROSOFT VISUAL STUDIO 12.0\VC\INCLUDE\INITIALIZER_LIST
C:\PROGRAM FILES (X86)\MICROSOFT VISUAL STUDIO 12.0\VC\INCLUDE\EH.H
C:\PROGRAM FILES (X86)\MICROSOFT VISUAL STUDIO 12.0\VC\INCLUDE\MALLOC.H
C:\PROGRAM FILES (X86)\MICROSOFT VISUAL STUDIO 12.0\VC\INCLUDE\XSTRING
C:\PROGRAM FILES (X86)\MICROSOFT VISUAL STUDIO 12.0\VC\INCLUDE\XMEMORY0
C:\PROGRAM FILES (X86)\MICROSOFT VISUAL STUDIO 12.0\VC\INCLUDE\LIMITS
C:\PROGRAM FILES (X86)\MICROSOFT VISUAL STUDIO 12.0\VC\INCLUDE\YMATH.H
C:\PROGRAM FILES (X86)\MICROSOFT VISUAL STUDIO 12.0\VC\INCLUDE\CFLOAT
C:\PROGRAM FILES (X86)\MICROSOFT VISUAL STUDIO 12.0\VC\INCLUDE\FLOAT.H
C:\PROGRAM FILES (X86)\MICROSOFT VISUAL STUDIO 12.0\VC\INCLUDE\CRTWRN.H
C:\PROGRAM FILES (X86)\MICROSOFT VISUAL STUDIO 12.0\VC\INCLUDE\CWCHAR
C:\PROGRAM FILES (X86)\MICROSOFT VISUAL STUDIO 12.0\VC\INCLUDE\WCHAR.H
C:\PROGRAM FILES (X86)\MICROSOFT VISUAL STUDIO 12.0\VC\INCLUDE\WTIME.INL
C:\PROGRAM FILES (X86)\MICROSOFT VISUAL STUDIO 12.0\VC\INCLUDE\NEW
C:\PROGRAM FILES (X86)\MICROSOFT VISUAL STUDIO 12.0\VC\INCLUDE\XUTILITY
C:\PROGRAM FILES (X86)\MICROSOFT VISUAL STUDIO 12.0\VC\INCLUDE\UTILITY
C:\PROGRAM FILES (X86)\MICROSOFT VISUAL STUDIO 12.0\VC\INCLUDE\IOSFWD
C:\PROGRAM FILES (X86)\MICROSOFT VISUAL STUDIO 12.0\VC\INCLUDE\CRTDBG.H
C:\PROGRAM FILES (X86)\MICROSOFT VISUAL STUDIO 12.0\VC\INCLUDE\TYPE_TRAITS
C:\PROGRAM FILES (X86)\MICROSOFT VISUAL STUDIO 12.0\VC\INCLUDE\XREFWRAP
C:\PROGRAM FILES (X86)\MICROSOFT VISUAL STUDIO 12.0\VC\INCLUDE\XATOMIC0.H
C:\PROGRAM FILES (X86)\MICROSOFT VISUAL STUDIO 12.0\VC\INCLUDE\INTRIN.H
C:\PROGRAM FILES (X86)\MICROSOFT VISUAL STUDIO 12.0\VC\INCLUDE\SETJMP.H
C:\PROGRAM FILES (X86)\MICROSOFT VISUAL STUDIO 12.0\VC\INCLUDE\IMMINTRIN.H
C:\PROGRAM FILES (X86)\MICROSOFT VISUAL STUDIO 12.0\VC\INCLUDE\WMMINTRIN.H
C:\PROGRAM FILES (X86)\MICROSOFT VISUAL STUDIO 12.0\VC\INCLUDE\NMMINTRIN.H
C:\PROGRAM FILES (X86)\MICROSOFT VISUAL STUDIO 12.0\VC\INCLUDE\SMMINTRIN.H
C:\PROGRAM FILES (X86)\MICROSOFT VISUAL STUDIO 12.0\VC\INCLUDE\TMMINTRIN.H
C:\PROGRAM FILES (X86)\MICROSOFT VISUAL STUDIO 12.0\VC\INCLUDE\PMMINTRIN.H
C:\PROGRAM FILES (X86)\MICROSOFT VISUAL STUDIO 12.0\VC\INCLUDE\EMMINTRIN.H
C:\PROGRAM FILES (X86)\MICROSOFT VISUAL STUDIO 12.0\VC\INCLUDE\XMMINTRIN.H
C:\PROGRAM FILES (X86)\MICROSOFT VISUAL STUDIO 12.0\VC\INCLUDE\MMINTRIN.H
C:\PROGRAM FILES (X86)\MICROSOFT VISUAL STUDIO 12.0\VC\INCLUDE\AMMINTRIN.H
C:\PROGRAM FILES (X86)\MICROSOFT VISUAL STUDIO 12.0\VC\INCLUDE\TYPEINFO
C:\PROGRAM FILES (X86)\MICROSOFT VISUAL STUDIO 12.0\VC\INCLUDE\XLOCINFO
C:\PROGRAM FILES (X86)\MICROSOFT VISUAL STUDIO 12.0\VC\INCLUDE\XLOCINFO.H
C:\PROGRAM FILES (X86)\MICROSOFT VISUAL STUDIO 12.0\VC\INCLUDE\CTYPE.H
C:\PROGRAM FILES (X86)\MICROSOFT VISUAL STUDIO 12.0\VC\INCLUDE\LOCALE.H
C:\PROGRAM FILES (X86)\MICROSOFT VISUAL STUDIO 12.0\VC\INCLUDE\XDEBUG
C:\PROGRAM FILES (X86)\MICROSOFT VISUAL STUDIO 12.0\VC\INCLUDE\XMEMORY
C:\PROGRAM FILES (X86)\MICROSOFT VISUAL STUDIO 12.0\VC\INCLUDE\XFACET
C:\PROGRAM FILES (X86)\MICROSOFT VISUAL STUDIO 12.0\VC\INCLUDE\SYSTEM_ERROR
C:\PROGRAM FILES (X86)\MICROSOFT VISUAL STUDIO 12.0\VC\INCLUDE\CERRNO
C:\PROGRAM FILES (X86)\MICROSOFT VISUAL STUDIO 12.0\VC\INCLUDE\ERRNO.H
C:\PROGRAM FILES (X86)\MICROSOFT VISUAL STUDIO 12.0\VC\INCLUDE\SHARE.H
C:\PROGRAM FILES (X86)\MICROSOFT VISUAL STUDIO 12.0\VC\INCLUDE\IOSTREAM
C:\PROGRAM FILES\ROBOTOLOGY\YARP-2.3.66\INCLUDE\YARP\OS\CONTACT.H
C:\PROGRAM FILES\ROBOTOLOGY\YARP-2.3.66\INCLUDE\YARP\OS\SEARCHABLE.H
C:\PROGRAM FILES\ROBOTOLOGY\YARP-2.3.66\INCLUDE\YARP\OS\NESTEDCONTACT.H
C:\PROGRAM FILES\ROBOTOLOGY\YARP-2.3.66\INCLUDE\YARP\OS\PORTABLE.H
C:\PROGRAM FILES\ROBOTOLOGY\YARP-2.3.66\INCLUDE\YARP\OS\PORTREADER.H
C:\PROGRAM FILES\ROBOTOLOGY\YARP-2.3.66\INCLUDE\YARP\OS\CONNECTIONREADER.H
C:\PROGRAM FILES\ROBOTOLOGY\YARP-2.3.66\INCLUDE\YARP\OS\BYTES.H
C:\PROGRAM FILES\ROBOTOLOGY\YARP-2.3.66\INCLUDE\YARP\OS\TYPE.H
C:\PROGRAM FILES\ROBOTOLOGY\YARP-2.3.66\INCLUDE\YARP\OS\PORTWRITER.H
C:\PROGRAM FILES\ROBOTOLOGY\YARP-2.3.66\INCLUDE\YARP\OS\CONNECTIONWRITER.H
C:\PROGRAM FILES\ROBOTOLOGY\YARP-2.3.66\INCLUDE\YARP\OS\VALUE.H
C:\PROGRAM FILES\ROBOTOLOGY\YARP-2.3.66\INCLUDE\YARP\OS\BOTTLE.H
C:\PROGRAM FILES\ROBOTOLOGY\YARP-2.3.66\INCLUDE\YARP\OS\PROPERTY.H
C:\PROGRAM FILES\ROBOTOLOGY\YARP-2.3.66\INCLUDE\YARP\OS\NAMESTORE.H
C:\PROGRAM FILES\ROBOTOLOGY\YARP-2.3.66\INCLUDE\YARP\OS\QOSSTYLE.H
C:\PROGRAM FILES\ROBOTOLOGY\YARP-2.3.66\INCLUDE\YARP\OS\RFMODULE.H
C:\PROGRAM FILES\ROBOTOLOGY\YARP-2.3.66\INCLUDE\YARP\OS\PORT.H
C:\PROGRAM FILES\ROBOTOLOGY\YARP-2.3.66\INCLUDE\YARP\OS\UNBUFFEREDCONTACTABLE.H
C:\PROGRAM FILES\ROBOTOLOGY\YARP-2.3.66\INCLUDE\YARP\OS\CONTACTABLE.H
C:\PROGRAM FILES\ROBOTOLOGY\YARP-2.3.66\INCLUDE\YARP\OS\PORTREPORT.H
C:\PROGRAM FILES\ROBOTOLOGY\YARP-2.3.66\INCLUDE\YARP\OS\MUTEX.H
C:\PROGRAM FILES\ROBOTOLOGY\YARP-2.3.66\INCLUDE\YARP\OS\PORTREADERCREATOR.H
C:\PROGRAM FILES\ROBOTOLOGY\YARP-2.3.66\INCLUDE\YARP\OS\PORTREADERBUFFER.H
C:\PROGRAM FILES\ROBOTOLOGY\YARP-2.3.66\INCLUDE\YARP\OS\THREAD.H
C:\PROGRAM FILES\ROBOTOLOGY\YARP-2.3.66\INCLUDE\YARP\OS\LOCALREADER.H
C:\PROGRAM FILES\ROBOTOLOGY\YARP-2.3.66\INCLUDE\YARP\OS\RPCSERVER.H
C:\PROGRAM FILES\ROBOTOLOGY\YARP-2.3.66\INCLUDE\YARP\OS\ABSTRACTCONTACTABLE.H
C:\PROGRAM FILES\ROBOTOLOGY\YARP-2.3.66\INCLUDE\YARP\OS\RESOURCEFINDER.H
C:\PROGRAM FILES\ROBOTOLOGY\YARP-2.3.66\INCLUDE\YARP\OS\RESOURCEFINDEROPTIONS.H
C:\PROGRAM FILES\ROBOTOLOGY\YARP-2.3.66\INCLUDE\YARP\OS\RATETHREAD.H
C:\PROGRAM FILES\ROBOTOLOGY\YARP-2.3.66\INCLUDE\YARP\OS\RUNNABLE.H
C:\PROGRAM FILES\ROBOTOLOGY\YARP-2.3.66\INCLUDE\YARP\OS\TIME.H
C:\PROGRAM FILES\ROBOTOLOGY\YARP-2.3.66\INCLUDE\YARP\OS\CLOCK.H
C:\PROGRAM FILES\ROBOTOLOGY\YARP-2.3.66\INCLUDE\YARP\OS\LOGSTREAM.H
C:\PROGRAM FILES (X86)\MICROSOFT VISUAL STUDIO 12.0\VC\INCLUDE\SSTREAM
C:\PROGRAM FILES (X86)\MICROSOFT VISUAL STUDIO 12.0\VC\INCLUDE\VECTOR
C:\PROGRAM FILES\ROBOTOLOGY\YARP-2.3.66\INCLUDE\YARP\OS\LOG.H
C:\PROGRAM FILES\ROBOTOLOGY\YARP-2.3.66\INCLUDE\YARP\OS\OS.H
C:\PROGRAM FILES\ROBOTOLOGY\YARP-2.3.66\INCLUDE\YARP\SIG\VECTOR.H
C:\PROGRAM FILES\ROBOTOLOGY\YARP-2.3.66\INCLUDE\YARP\OS\MANAGEDBYTES.H
C:\PROGRAM FILES\ROBOTOLOGY\YARP-2.3.66\INCLUDE\YARP\SIG\API.H
C:\PROGRAM FILES\ROBOTOLOGY\YARP-2.3.66\INCLUDE\YARP\MATH\MATH.H
C:\PROGRAM FILES\ROBOTOLOGY\YARP-2.3.66\INCLUDE\YARP\SIG\MATRIX.H
C:\PROGRAM FILES (X86)\MICROSOFT VISUAL STUDIO 12.0\VC\INCLUDE\MEMORY.H
C:\PROGRAM FILES\ROBOTOLOGY\YARP-2.3.66\INCLUDE\YARP\MATH\API.H
C:\PROGRAM FILES\ROBOTOLOGY\YARP-2.3.66\INCLUDE\YARP\DEV\DRIVERS.H
C:\PROGRAM FILES\ROBOTOLOGY\YARP-2.3.66\INCLUDE\YARP\DEV\DEVICEDRIVER.H
C:\PROGRAM FILES\ROBOTOLOGY\YARP-2.3.66\INCLUDE\YARP\OS\BUFFEREDPORT.H
C:\PROGRAM FILES\ROBOTOLOGY\YARP-2.3.66\INCLUDE\YARP\OS\PORTWRITERBUFFER.H
C:\PROGRAM FILES\ROBOTOLOGY\YARP-2.3.66\INCLUDE\YARP\OS\ICONFIG.H
C:\PROGRAM FILES\ROBOTOLOGY\YARP-2.3.66\INCLUDE\YARP\DEV\API.H
C:\PROGRAM FILES\ROBOTOLOGY\YARP-2.3.66\INCLUDE\YARP\DEV\CARTESIANCONTROL.H
C:\PROGRAM FILES\ROBOTOLOGY\YARP-2.3.66\INCLUDE\YARP\OS\STAMP.H
C:\PROGRAM FILES\ROBOTOLOGY\YARP-2.3.66\INCLUDE\YARP\OS\NETINT32.H
C:\PROGRAM FILES\ROBOTOLOGY\YARP-2.3.66\INCLUDE\YARP\OS\NETFLOAT64.H
C:\PROGRAM FILES\ROBOTOLOGY\YARP-2.3.66\INCLUDE\YARP\DEV\POLYDRIVER.H
