^C:\USERS\KATE\DESKTOP\KATE\UNIVERSITY\FINAL YEAR\FINAL YEAR PROJECT\COPYFILES\DEMOS\TUTORIAL_CARTESIAN-INTERFACE-ALEXANTN\BUILD_NEW\TUTORIAL_CARTESIAN-INTERFACE.DIR\DEBUG\MAIN.OBJ
C:\PROGRA~1\BULLGU~1\BULLGU~1\FILES32\BGAGENT.DLL
C:\WINDOWS\GLOBALIZATION\SORTING\SORTDEFAULT.NLS
C:\PROGRAM FILES (X86)\MICROSOFT VISUAL STUDIO 12.0\VC\BIN\X86_AMD64\LINK.EXE
C:\PROGRAM FILES (X86)\WINDOWS KITS\8.1\LIB\WINV6.3\UM\X64\KERNEL32.LIB
C:\PROGRAM FILES (X86)\WINDOWS KITS\8.1\LIB\WINV6.3\UM\X64\USER32.LIB
C:\PROGRAM FILES (X86)\WINDOWS KITS\8.1\LIB\WINV6.3\UM\X64\GDI32.LIB
C:\PROGRAM FILES (X86)\WINDOWS KITS\8.1\LIB\WINV6.3\UM\X64\WINSPOOL.LIB
C:\PROGRAM FILES (X86)\WINDOWS KITS\8.1\LIB\WINV6.3\UM\X64\SHELL32.LIB
C:\PROGRAM FILES (X86)\WINDOWS KITS\8.1\LIB\WINV6.3\UM\X64\OLE32.LIB
C:\PROGRAM FILES (X86)\WINDOWS KITS\8.1\LIB\WINV6.3\UM\X64\OLEAUT32.LIB
C:\PROGRAM FILES (X86)\WINDOWS KITS\8.1\LIB\WINV6.3\UM\X64\UUID.LIB
C:\PROGRAM FILES (X86)\WINDOWS KITS\8.1\LIB\WINV6.3\UM\X64\COMDLG32.LIB
C:\PROGRAM FILES (X86)\WINDOWS KITS\8.1\LIB\WINV6.3\UM\X64\ADVAPI32.LIB
C:\PROGRAM FILES\ROBOTOLOGY\YARP\LIB\YARP_DEV.LIB
C:\PROGRAM FILES\ROBOTOLOGY\YARP\LIB\YARP_NAME.LIB
C:\PROGRAM FILES\ROBOTOLOGY\YARP\LIB\YARP_INIT.LIB
C:\PROGRAM FILES\ROBOTOLOGY\YARP\LIB\YARP_MATH.LIB
C:\PROGRAM FILES\ROBOTOLOGY\YARP\LIB\YARP_SIG.LIB
C:\PROGRAM FILES\ROBOTOLOGY\YARP\LIB\YARP_OS.LIB
C:\USERS\KATE\DESKTOP\KATE\UNIVERSITY\FINAL YEAR\FINAL YEAR PROJECT\COPYFILES\DEMOS\TUTORIAL_CARTESIAN-INTERFACE-ALEXANTN\BUILD_NEW\TUTORIAL_CARTESIAN-INTERFACE.DIR\DEBUG\MAIN.OBJ
C:\WINDOWS\SYSTEM32\TZRES.DLL
C:\PROGRAM FILES (X86)\MICROSOFT VISUAL STUDIO 12.0\VC\LIB\AMD64\MSVCPRTD.LIB
C:\PROGRAM FILES (X86)\MICROSOFT VISUAL STUDIO 12.0\VC\LIB\AMD64\MSVCRTD.LIB
C:\PROGRAM FILES (X86)\MICROSOFT VISUAL STUDIO 12.0\VC\LIB\AMD64\OLDNAMES.LIB
C:\PROGRAM FILES (X86)\WINDOWS KITS\8.1\BIN\X86\RC.EXE
C:\PROGRAM FILES (X86)\MICROSOFT VISUAL STUDIO 12.0\VC\BIN\CVTRES.EXE
